%YAML 1.1
%TAG !u! tag:unity3d.com,2011:
--- !u!162 &1
EditorUserSettings:
  m_ObjectHideFlags: 0
  serializedVersion: 4
  m_ConfigSettings:
    RecentlyUsedScenePath-0:
      value: 22424703114646680e0b0227036c6c111b07142f1f2b233e2867083debf42d
      flags: 0
    RecentlyUsedScenePath-1:
      value: 22424703114646770c0c5d6d3c225d41580216233831
      flags: 0
    RecentlyUsedScenePath-2:
      value: 22424703114646770c0c5e6f252d56040f3e163a393c15293e3d183eadcc353ab0aa05eae2343a6d7717e1351027
      flags: 0
    RecentlyUsedScenePath-3:
      value: 22424703114646770c0c5e6f252d56040f3e163a393c15293e3d183eadcc353ab0a963a6cb3b3d6e7757a1290a371526
      flags: 0
    vcSharedLogLevel:
      value: 0d5e400f0650
      flags: 0
  m_VCAutomaticAdd: 1
  m_VCDebugCom: 0
  m_VCDebugCmd: 0
  m_VCDebugOut: 0
  m_SemanticMergeMode: 2
  m_VCShowFailedCheckout: 1
  m_VCOverwriteFailedCheckoutAssets: 1
  m_VCProjectOverlayIcons: 1
  m_VCHierarchyOverlayIcons: 1
  m_VCOtherOverlayIcons: 1
  m_VCAllowAsyncUpdate: 1
